[gd_resource type="DynamicFont" load_steps=2 format=2]

[ext_resource path="res://LudumDare/Fonts/TrueType/Kenney Future.ttf" type="DynamicFontData" id=1]

[resource]

size = 32
use_mipmaps = false
use_filter = false
font_data = ExtResource( 1 )
_sections_unfolded = [ "Font", "Settings" ]

