[gd_scene load_steps=3 format=2]

[ext_resource path="res://LudumDare/Fonts/title_h5.tres" type="DynamicFont" id=1]
[ext_resource path="res://LudumDare/Gui/Buttons/title_button.gd" type="Script" id=2]

[node name="Button" type="Button"]

anchor_left = 0.0
anchor_top = 0.0
anchor_right = 1.0
anchor_bottom = 1.0
rect_min_size = Vector2( 360, 80 )
rect_pivot_offset = Vector2( 0, 0 )
rect_clip_content = false
focus_mode = 2
mouse_filter = 0
mouse_default_cursor_shape = 0
size_flags_horizontal = 1
size_flags_vertical = 1
custom_fonts/font = ExtResource( 1 )
toggle_mode = false
enabled_focus_mode = 2
shortcut = null
group = null
text = "Button"
flat = false
align = 1
script = ExtResource( 2 )
_sections_unfolded = [ "custom_fonts" ]
scene = null

[connection signal="pressed" from="." to="." method="_on_Button_pressed"]


