[gd_scene load_steps=3 format=2]

[ext_resource path="res://LudumDare/Game/Pieces/Piece.tscn" type="PackedScene" id=1]
[ext_resource path="res://LudumDare/Art/Pieces/tileGreen_04.png" type="Texture" id=2]




[node name="TileSpeed" index="0" instance=ExtResource( 1 )]

[node name="Sprite" parent="." index="1"]

texture = ExtResource( 2 )


